module docker-hosts-sync

go 1.22.2

require github.com/fsouza/go-dockerclient v1.11.0

require (
	github.com/Azure/go-ansiterm v0.0.0-20230124172434-306776ec8161 // indirect
	github.com/Microsoft/go-winio v0.6.1 // indirect
	github.com/containerd/containerd v1.7.15 // indirect
	github.com/containerd/log v0.1.0 // indirect
	github.com/docker/docker v26.0.1+incompatible // indirect
	github.com/docker/go-connections v0.5.0 // indirect
	github.com/docker/go-units v0.5.0 // indirect
	github.com/gogo/protobuf v1.3.2 // indirect
	github.com/klauspost/compress v1.17.8 // indirect
	github.com/moby/docker-image-spec v1.3.1 // indirect
	github.com/moby/patternmatcher v0.6.0 // indirect
	github.com/moby/sys/sequential v0.5.0 // indirect
	github.com/moby/sys/user v0.1.0 // indirect
	github.com/moby/term v0.5.0 // indirect
	github.com/morikuni/aec v1.0.0 // indirect
	github.com/opencontainers/go-digest v1.0.0 // indirect
	github.com/opencontainers/image-spec v1.1.0 // indirect
	github.com/pkg/errors v0.9.1 // indirect
	github.com/sirupsen/logrus v1.9.3 // indirect
	golang.org/x/mod v0.17.0 // indirect
	golang.org/x/sync v0.7.0 // indirect
	golang.org/x/sys v0.19.0 // indirect
	golang.org/x/tools v0.20.0 // indirect
	gotest.tools/v3 v3.5.1 // indirect
)
